Women NCAA EDA
…
#saveRDS(play_by_play, "play_by_play15_19.rds")
# play_by_play <- readRDS("play_by_play2015_19.rds")

Scoring patterns of the play-by-play analysis over the years (step 4)

Overall, the field goal (FG) % was 39.56 on 3,078,936 attempts. Suprisingly, tries on threes were only 1.3% less successful than 2-point jumpers, yet the potential payoff is 50% (3/2 x 100) more points for taking the three. That explains the clamor for a shift to threes and shots at the rim.

play_by_play %>%
  filter(Season == 2019) %>%
  as.tibble()    #2019 data

## # A tibble: 618,398 x 26
##    EventID Season DayNum WTeamID LTeamID WFinalScore LFinalScore
##      <dbl>  <dbl>  <dbl>   <dbl>   <dbl>       <dbl>       <dbl>
##  1  1.01e7   2019      1    3113    3230          81          43
##  2  1.01e7   2019      1    3113    3230          81          43
##  3  1.01e7   2019      1    3113    3230          81          43
##  4  1.01e7   2019      1    3113    3230          81          43
##  5  1.01e7   2019      1    3113    3230          81          43
##  6  1.01e7   2019      1    3113    3230          81          43
##  7  1.01e7   2019      1    3113    3230          81          43
##  8  1.01e7   2019      1    3113    3230          81          43
##  9  1.01e7   2019      1    3113    3230          81          43
## 10  1.01e7   2019      1    3113    3230          81          43
## # ... with 618,388 more rows, and 19 more variables: WCurrentScore <dbl>,
## #   LCurrentScore <dbl>, ElapsedSeconds <dbl>, EventTeamID <dbl>,
## #   EventPlayerID <dbl>, EventType <chr>, EventSubType <chr>, X <dbl>,
## #   Y <dbl>, Area <dbl>, shot_outcome <chr>, FGVariable <chr>,
## #   AttemptType <chr>, GameID <chr>, EventType2 <chr>,
## #   EventPlayerID2 <dbl>, FGVariableAny <chr>, Alert <chr>,
## #   AssistedFGM <chr>
…
